<svg xmlns="http://www.w3.org/2000/svg" viewBox="0 0 9.41 16">
	<path fill="#4b4f54"
		d="M7.71.29a1,1,0,0,1,1.41,0,1,1,0,0,1,0,1.42ZM1.41,8l-.7.71L0,8l.71-.71Zm7.71,6.29a1,1,0,0,1,0,1.42,1,1,0,0,1-1.41,0Zm0-12.58-7,7L.71,7.29l7-7Zm-7,5.58,7,7L7.71,15.71l-7-7Z" />
</svg>