{
  "sections": {
    "hero": {
      "type": "blog-index-hero",
      "settings": {
        "heading": "Where to?",
        "paragraph": "Samuel Hubbard is part of a long journey, born from vibrant experiences, relentless curiosity, and a passion for comfortable shoes. Each article in our shoe fashion blog is a  peek into our world. Where will your Hubbards take you? Read on and let your soles wander."
      }
    },
    "featuredArticle": {
      "type": "blog-index-featured-article",
      "settings": {
        "featured_article": "journal\/comfortable-sustainable-shoes"
      }
    },
    "articles": {
      "type": "blog-index-articles",
      "blocks": {
        "32a08d48-36b0-43db-a5aa-3d3cd31beab2": {
          "type": "filter",
          "settings": {
            "tag": "Shoe Care Tips"
          }
        },
        "cfbe4c63-7282-4ba5-975b-fff4be5437a6": {
          "type": "filter",
          "settings": {
            "tag": "Lifestyle"
          }
        },
        "66f29219-f9be-450b-8768-0c3508d3b5f3": {
          "type": "filter",
          "settings": {
            "tag": "Customer Journeys"
          }
        },
        "7f489dc0-a932-4909-bada-c2865dfe398f": {
          "type": "filter",
          "settings": {
            "tag": "Healthy Feet"
          }
        },
        "c2962f93-1afb-4dd3-a437-df5f609dbaa4": {
          "type": "filter",
          "settings": {
            "tag": "Sustainability"
          }
        }
      },
      "block_order": [
        "32a08d48-36b0-43db-a5aa-3d3cd31beab2",
        "cfbe4c63-7282-4ba5-975b-fff4be5437a6",
        "66f29219-f9be-450b-8768-0c3508d3b5f3",
        "7f489dc0-a932-4909-bada-c2865dfe398f",
        "c2962f93-1afb-4dd3-a437-df5f609dbaa4"
      ],
      "settings": {}
    },
    "163322723336930471": {
      "type": "subscribe_with-image",
      "settings": {}
    }
  },
  "order": [
    "hero",
    "featuredArticle",
    "articles",
    "163322723336930471"
  ]
}