{
  "sections": {
    "banner": {
      "type": "main-collection-banner",
      "settings": {}
    },
    "interstitialBlocks1": {
      "type": "plp-interstitial-blocks",
      "blocks": {
        "3e3d1d5b-ee5d-4694-86da-d1069dfabf9b": {
          "type": "title",
          "settings": {
            "title": "HEALTHY FEET - Men"
          }
        },
        "be7e57cb-0cae-4ec4-b35a-f2d4f88729ee": {
          "type": "video",
          "settings": {
            "title": "Plantar Fasciitis Video M",
            "collection": "mens-plantar-fasciitis",
            "grid_row_desktop": 2,
            "grid_row_tablet": 2,
            "grid_row_mobile": 2,
            "grid_column": "1",
            "video_background": "https:\/\/vimeo.com\/551703527",
            "video_autoplay": false,
            "video_title": "",
            "url": ""
          }
        },
        "061f6f3b-1336-4cd7-ba3e-4027ec112d34": {
          "type": "two-column",
          "settings": {
            "title": "Plantar Fasciitis Fit M",
            "collection": "mens-plantar-fasciitis",
            "grid_row_desktop": 4,
            "grid_row_tablet": 4,
            "grid_row_mobile": 8,
            "grid_column": "2",
            "image": "shopify:\/\/shop_images\/walking_68db0e57-d558-4aff-afef-7511ee17b5f0.jpg",
            "image_mobile": "shopify:\/\/shop_images\/walking_68db0e57-d558-4aff-afef-7511ee17b5f0.jpg",
            "icon": "healthy-feet",
            "headline": "<p>The first step to healthy feet starts with the right fit.<\/p>",
            "body": "Simply wearing properly-lifted shoes\ncan prevent most foot conditions and injuries. The right shoe will support your very foundation, which can increase mobility and lead to a more active life.",
            "url": ""
          }
        },
        "bc49b3bf-f5c4-4b45-8c0d-4c7057ae76ad": {
          "type": "video",
          "settings": {
            "title": "Flat Feet Video M",
            "collection": "mens-flat-feet",
            "grid_row_desktop": 2,
            "grid_row_tablet": 2,
            "grid_row_mobile": 2,
            "grid_column": "1",
            "video_background": "https:\/\/vimeo.com\/555449947",
            "video_autoplay": false,
            "video_title": "",
            "url": ""
          }
        },
        "8eac22a5-5994-4ee3-8812-d42665170379": {
          "type": "two-column",
          "settings": {
            "title": "Flat Feet Fit M",
            "collection": "mens-flat-feet",
            "grid_row_desktop": 4,
            "grid_row_tablet": 4,
            "grid_row_mobile": 8,
            "grid_column": "2",
            "image": "shopify:\/\/shop_images\/about_comfort_cfb158a7-c744-48fc-bbe1-613b20976c48.jpg",
            "image_mobile": "shopify:\/\/shop_images\/about_comfort_cfb158a7-c744-48fc-bbe1-613b20976c48.jpg",
            "icon": "healthy-feet",
            "headline": "<p>The first step to healthy feet starts with the right fit.<\/p>",
            "body": "Simply wearing properly-lifted shoes\ncan prevent most foot conditions and injuries. The right shoe will support your very foundation, which can increase mobility and lead to a more active life.",
            "url": ""
          }
        },
        "64309db9-9517-403e-81f9-c6a61ffb9daf": {
          "type": "two-column",
          "settings": {
            "title": "Neuropathy Fit M",
            "collection": "mens-neuropathy",
            "grid_row_desktop": 4,
            "grid_row_tablet": 4,
            "grid_row_mobile": 8,
            "grid_column": "2",
            "image": "shopify:\/\/shop_images\/ad_block_half_fit_367cebdf-7745-4f33-b1b3-eb9a36a628ce.jpg",
            "image_mobile": "shopify:\/\/shop_images\/Rectangle_210_52bfc24f-5595-4554-b29b-b40a2b0c66fe.png",
            "icon": "healthy-feet",
            "headline": "<p>The first step to healthy feet starts with the right fit.<\/p>",
            "body": "Simply wearing properly-lifted shoes\ncan prevent most foot conditions and injuries. The right shoe will support your very foundation, which can increase mobility and lead to a more active life.",
            "url": ""
          }
        },
        "f8f83e71-baf4-44a3-adb6-fe2755873588": {
          "type": "video",
          "settings": {
            "title": "Neuropathy Video M",
            "collection": "mens-neuropathy",
            "grid_row_desktop": 2,
            "grid_row_tablet": 2,
            "grid_row_mobile": 4,
            "grid_column": "1",
            "video_background": "https:\/\/vimeo.com\/555405323",
            "video_autoplay": false,
            "video_title": "",
            "url": ""
          }
        },
        "915026f9-513d-4b78-9d94-a2019b9443cc": {
          "type": "video",
          "settings": {
            "title": "Arthritis Video M",
            "collection": "mens-arthritis",
            "grid_row_desktop": 2,
            "grid_row_tablet": 2,
            "grid_row_mobile": 4,
            "grid_column": "1",
            "video_background": "https:\/\/vimeo.com\/556039615",
            "video_autoplay": false,
            "video_title": "",
            "url": ""
          }
        },
        "af0217c8-fb5f-4faa-b506-3191604a7d5c": {
          "type": "two-column",
          "settings": {
            "title": "Arthritis Fit M",
            "collection": "mens-arthritis",
            "grid_row_desktop": 4,
            "grid_row_tablet": 4,
            "grid_row_mobile": 8,
            "grid_column": "2",
            "image": "shopify:\/\/shop_images\/walking_68db0e57-d558-4aff-afef-7511ee17b5f0.jpg",
            "image_mobile": "shopify:\/\/shop_images\/walking_mobile.jpg",
            "icon": "healthy-feet",
            "headline": "<p>The first step to healthy feet starts with the right fit.<\/p>",
            "body": "Simply wearing properly-lifted shoes\ncan prevent most foot conditions and injuries. The right shoe will support your very foundation, which can increase mobility and lead to a more active life.",
            "url": ""
          }
        },
        "7852ff70-0f18-49f1-b523-db9a5ac6acb2": {
          "type": "video",
          "settings": {
            "title": "Bunions Video M",
            "collection": "mens-bunions",
            "grid_row_desktop": 2,
            "grid_row_tablet": 2,
            "grid_row_mobile": 4,
            "grid_column": "1",
            "video_background": "https:\/\/vimeo.com\/556040516",
            "video_autoplay": false,
            "video_title": "",
            "url": ""
          }
        },
        "8e9a98ed-159f-4bbc-93e3-530b8c30be22": {
          "type": "two-column",
          "settings": {
            "title": "Bunions Fit M",
            "collection": "mens-bunions",
            "grid_row_desktop": 4,
            "grid_row_tablet": 4,
            "grid_row_mobile": 8,
            "grid_column": "2",
            "image": "shopify:\/\/shop_images\/eco.vertical.jpg",
            "icon": "healthy-feet",
            "headline": "<p>The first step to healthy feet starts with the right fit.<\/p>",
            "body": "Simply wearing properly-lifted shoes\ncan prevent most foot conditions and injuries. The right shoe will support your very foundation, which can increase mobility and lead to a more active life.",
            "url": ""
          }
        }
      },
      "block_order": [
        "3e3d1d5b-ee5d-4694-86da-d1069dfabf9b",
        "be7e57cb-0cae-4ec4-b35a-f2d4f88729ee",
        "061f6f3b-1336-4cd7-ba3e-4027ec112d34",
        "bc49b3bf-f5c4-4b45-8c0d-4c7057ae76ad",
        "8eac22a5-5994-4ee3-8812-d42665170379",
        "64309db9-9517-403e-81f9-c6a61ffb9daf",
        "f8f83e71-baf4-44a3-adb6-fe2755873588",
        "915026f9-513d-4b78-9d94-a2019b9443cc",
        "af0217c8-fb5f-4faa-b506-3191604a7d5c",
        "7852ff70-0f18-49f1-b523-db9a5ac6acb2",
        "8e9a98ed-159f-4bbc-93e3-530b8c30be22"
      ],
      "settings": {}
    },
    "interstitialBlocks2": {
      "type": "plp-interstitial-blocks",
      "blocks": {
        "600b091a-5264-4b47-a0cf-41bcc6a2314b": {
          "type": "title",
          "settings": {
            "title": "HEALTHY FEET- Women"
          }
        },
        "c0652e3f-51ab-4e3b-807f-e640a2c5f834": {
          "type": "video",
          "settings": {
            "title": "Flat Feet Video W",
            "collection": "womens-flat-feet",
            "grid_row_desktop": 2,
            "grid_row_tablet": 2,
            "grid_row_mobile": 2,
            "grid_column": "1",
            "video_background": "https:\/\/vimeo.com\/555449947",
            "video_autoplay": false,
            "video_title": "",
            "url": ""
          }
        },
        "ea1d7f3f-cbb7-4fee-912d-771678dc24c4": {
          "type": "two-column",
          "settings": {
            "title": "Flat Feet Fit W",
            "collection": "womens-flat-feet",
            "grid_row_desktop": 4,
            "grid_row_tablet": 4,
            "grid_row_mobile": 4,
            "grid_column": "2",
            "image": "shopify:\/\/shop_images\/Plantar.Free.jpg",
            "image_mobile": "shopify:\/\/shop_images\/Plantar.Free.jpg",
            "icon": "none",
            "headline": "<p>The first step to healthy feet starts with the right fit.<\/p>",
            "body": "Simply wearing properly-lifted shoes\ncan prevent most foot conditions and injuries. The right shoe will support your very foundation, which can increase mobility and lead to a more active life.",
            "url": ""
          }
        },
        "c7f20d45-9c6f-46a9-ae0c-0438fbff5149": {
          "type": "video",
          "settings": {
            "title": "Plantar Fasciitis Video W",
            "collection": "womens-plantar-fasciitis",
            "grid_row_desktop": 2,
            "grid_row_tablet": 2,
            "grid_row_mobile": 4,
            "grid_column": "1",
            "video_background": "https:\/\/vimeo.com\/551703527",
            "video_autoplay": false,
            "video_title": "",
            "url": ""
          }
        },
        "ee78262c-cfcb-4365-9f1c-b1f6b63c6cfe": {
          "type": "two-column",
          "settings": {
            "title": "Plantar Fasciitis Fit W",
            "collection": "womens-plantar-fasciitis",
            "grid_row_desktop": 4,
            "grid_row_tablet": 4,
            "grid_row_mobile": 8,
            "grid_column": "2",
            "image": "shopify:\/\/shop_images\/Plantar.Free.jpg",
            "image_mobile": "shopify:\/\/shop_images\/Plantar.Free.jpg",
            "icon": "healthy-feet",
            "headline": "<p>The first step to healthy feet starts with the right fit.<\/p>",
            "body": "Simply wearing properly-lifted shoes\ncan prevent most foot conditions and injuries. The right shoe will support your very foundation, which can increase mobility and lead to a more active life.",
            "url": ""
          }
        },
        "02ab1778-afff-425b-b579-aa9687e919fb": {
          "type": "two-column",
          "settings": {
            "title": "Neuropathy Fit W",
            "collection": "womens-neuropathy",
            "grid_row_desktop": 4,
            "grid_row_tablet": 4,
            "grid_row_mobile": 8,
            "grid_column": "2",
            "image": "shopify:\/\/shop_images\/ad_block_half_fit_367cebdf-7745-4f33-b1b3-eb9a36a628ce.jpg",
            "image_mobile": "shopify:\/\/shop_images\/flightduo.jpg",
            "icon": "healthy-feet",
            "headline": "<p>The first step to healthy feet starts with the right fit.<\/p>",
            "body": "Simply wearing properly-lifted shoes\ncan prevent most foot conditions and injuries. The right shoe will support your very foundation, which can increase mobility and lead to a more active life.",
            "url": ""
          }
        },
        "9e8e2d26-3a12-43ae-bbab-af2dc34ca3ab": {
          "type": "video",
          "settings": {
            "title": "Neuropathy Video W",
            "collection": "womens-neuropathy",
            "grid_row_desktop": 2,
            "grid_row_tablet": 2,
            "grid_row_mobile": 4,
            "grid_column": "1",
            "video_background": "https:\/\/vimeo.com\/555405323",
            "video_autoplay": false,
            "video_title": "",
            "url": ""
          }
        },
        "ebf53272-2d2b-41ce-8ef8-339bc11faa72": {
          "type": "video",
          "settings": {
            "title": "Arthritis Video W",
            "collection": "womens-arthritis",
            "grid_row_desktop": 2,
            "grid_row_tablet": 2,
            "grid_row_mobile": 4,
            "grid_column": "1",
            "video_background": "https:\/\/vimeo.com\/556039615",
            "video_autoplay": false,
            "video_title": "",
            "url": ""
          }
        },
        "c6d738a7-b738-4643-85e8-3dfa689fc06a": {
          "type": "two-column",
          "settings": {
            "title": "Arthritis Fit W",
            "collection": "womens-arthritis",
            "grid_row_desktop": 4,
            "grid_row_tablet": 4,
            "grid_row_mobile": 8,
            "grid_column": "2",
            "image": "shopify:\/\/shop_images\/ad_block_half_fit_367cebdf-7745-4f33-b1b3-eb9a36a628ce.jpg",
            "image_mobile": "shopify:\/\/shop_images\/flightduo.jpg",
            "icon": "healthy-feet",
            "headline": "<p>The first step to healthy feet starts with the right fit.<\/p>",
            "body": "Simply wearing properly-lifted shoes\ncan prevent most foot conditions and injuries. The right shoe will support your very foundation, which can increase mobility and lead to a more active life.",
            "url": ""
          }
        },
        "4c7059cb-e299-495a-84d3-43ffd2897499": {
          "type": "video",
          "settings": {
            "title": "Bunions Video W",
            "collection": "womens-bunions",
            "grid_row_desktop": 2,
            "grid_row_tablet": 2,
            "grid_row_mobile": 4,
            "grid_column": "1",
            "video_background": "https:\/\/vimeo.com\/556040516",
            "video_autoplay": false,
            "video_title": "",
            "url": ""
          }
        },
        "fc6b87a5-f0c2-4ccd-9eb0-c644a63ad0b1": {
          "type": "two-column",
          "settings": {
            "title": "Bunions Fit W",
            "collection": "womens-bunions",
            "grid_row_desktop": 4,
            "grid_row_tablet": 4,
            "grid_row_mobile": 8,
            "grid_column": "2",
            "image": "shopify:\/\/shop_images\/Plantar.Free.jpg",
            "image_mobile": "shopify:\/\/shop_images\/Wslipper.jpg",
            "icon": "healthy-feet",
            "headline": "<p>The first step to healthy feet starts with the right fit.<\/p>",
            "body": "Simply wearing properly-lifted shoes\ncan prevent most foot conditions and injuries. The right shoe will support your very foundation, which can increase mobility and lead to a more active life.",
            "url": ""
          }
        }
      },
      "block_order": [
        "600b091a-5264-4b47-a0cf-41bcc6a2314b",
        "c0652e3f-51ab-4e3b-807f-e640a2c5f834",
        "ea1d7f3f-cbb7-4fee-912d-771678dc24c4",
        "c7f20d45-9c6f-46a9-ae0c-0438fbff5149",
        "ee78262c-cfcb-4365-9f1c-b1f6b63c6cfe",
        "02ab1778-afff-425b-b579-aa9687e919fb",
        "9e8e2d26-3a12-43ae-bbab-af2dc34ca3ab",
        "ebf53272-2d2b-41ce-8ef8-339bc11faa72",
        "c6d738a7-b738-4643-85e8-3dfa689fc06a",
        "4c7059cb-e299-495a-84d3-43ffd2897499",
        "fc6b87a5-f0c2-4ccd-9eb0-c644a63ad0b1"
      ],
      "settings": {}
    },
    "interstitialBlocks3": {
      "type": "plp-interstitial-blocks",
      "blocks": {
        "60cf6921-f00e-4821-895f-e4e87de85729": {
          "type": "title",
          "settings": {
            "title": "MEN'S CASUAL"
          }
        },
        "b895bbc3-5638-45ae-98b0-17e6dd5c8a74": {
          "type": "video",
          "settings": {
            "title": "Boat Shoe Video",
            "collection": "mens-boat-shoes",
            "grid_row_desktop": 2,
            "grid_row_tablet": 2,
            "grid_row_mobile": 4,
            "grid_column": "1",
            "video_background": "https:\/\/vimeo.com\/569477530",
            "video_autoplay": false,
            "video_title": "",
            "url": ""
          }
        },
        "e32d9c64-f7da-4a24-b6a9-eea9b142dafc": {
          "type": "overlay",
          "settings": {
            "title": "Sneakers 1",
            "collection": "mens-sneakers",
            "grid_row_desktop": 2,
            "grid_row_tablet": 2,
            "grid_row_mobile": 4,
            "grid_column": "1",
            "image": "shopify:\/\/shop_images\/fast.adblock.jpg",
            "image_mobile": "shopify:\/\/shop_images\/eco.vertical.jpg",
            "overlay_opacity": 0,
            "headline": "",
            "url": ""
          }
        },
        "c1d84c46-658b-46f1-9b4d-eb99a54b759c": {
          "type": "two-column",
          "settings": {
            "title": "Sneakers 2",
            "collection": "mens-sneakers",
            "grid_row_desktop": 4,
            "grid_row_tablet": 4,
            "grid_row_mobile": 8,
            "grid_column": "2",
            "image": "shopify:\/\/shop_images\/casual_mobile.jpg",
            "icon": "arch-support",
            "headline": "<p>Optimal Performance<\/p>",
            "body": "Our men's sneakers are engineered for lasting comfort and optimal performance. So feel free to give your new Hubbards a 30-day walk test. If your feet don't feel more comfortable and healthy, we’ll refund your purchase price. It’s that simple.",
            "url": ""
          }
        },
        "c521511a-8873-4676-96cb-52bbd935bdab": {
          "type": "overlay",
          "settings": {
            "title": "Sneakers 3",
            "collection": "mens-sneakers",
            "grid_row_desktop": 6,
            "grid_row_tablet": 6,
            "grid_row_mobile": 12,
            "grid_column": "1",
            "image": "shopify:\/\/shop_images\/OpenRoad.sneakers.jpg",
            "image_mobile": "shopify:\/\/shop_images\/CLP_split_walking_c0d57f2d-1947-4974-8cbe-5f6521a51333.jpg",
            "overlay_opacity": 0,
            "headline": "",
            "url": ""
          }
        },
        "21885206-faea-4a9d-a589-595eab0d0067": {
          "type": "overlay",
          "settings": {
            "title": "Casual Slip-Ons 1",
            "collection": "mens-casual-slip-on",
            "grid_row_desktop": 2,
            "grid_row_tablet": 2,
            "grid_row_mobile": 4,
            "grid_column": "1",
            "image": "shopify:\/\/shop_images\/SlipOn.Flight.jpg",
            "image_mobile": "shopify:\/\/shop_images\/black.sliponPDP.jpg",
            "overlay_opacity": 0,
            "headline": "",
            "url": ""
          }
        },
        "0fd6123b-9673-463c-9bf4-ed74e0ba4703": {
          "type": "overlay",
          "settings": {
            "title": "Casual Slip-Ons 2",
            "collection": "mens-casual-slip-on",
            "grid_row_desktop": 4,
            "grid_row_tablet": 4,
            "grid_row_mobile": 8,
            "grid_column": "2",
            "image": "shopify:\/\/shop_images\/SlipOn.BlueSkies.jpg",
            "image_mobile": "shopify:\/\/shop_images\/blueskies.rocks.jpg",
            "overlay_opacity": 0,
            "headline": "",
            "url": ""
          }
        },
        "2ee56225-458d-4382-aff4-49f0cd21b3f9": {
          "type": "two-column",
          "settings": {
            "title": "All Men's 1",
            "collection": "mens-shoes-all",
            "grid_row_desktop": 2,
            "grid_row_tablet": 2,
            "grid_row_mobile": 4,
            "grid_column": "1",
            "image": "shopify:\/\/shop_images\/eco.vertical.jpg",
            "icon": "smile",
            "headline": "<p>Happiness Guarantee<\/p>",
            "body": "Our priority is your happiness. So feel free to give your new Hubbards a 30-day walk test. If your feet don't feel more comfortable and healthy, we’ll refund your purchase price. It’s that simple.",
            "url": ""
          }
        },
        "2efef20f-24a7-4e39-b39d-3efca55c5db9": {
          "type": "overlay",
          "settings": {
            "title": "All Men's 2",
            "collection": "mens-shoes-all",
            "grid_row_desktop": 4,
            "grid_row_tablet": 4,
            "grid_row_mobile": 8,
            "grid_column": "2",
            "image": "shopify:\/\/shop_images\/SlipOn.Flight.jpg",
            "image_mobile": "shopify:\/\/shop_images\/frequent.vertical.jpg",
            "overlay_opacity": 0,
            "headline": "",
            "url": ""
          }
        },
        "bfa0ecf5-6cda-48ed-9298-b68db610b1ae": {
          "type": "two-column",
          "settings": {
            "title": "All Men's 3",
            "collection": "mens-shoes-all",
            "grid_row_desktop": 6,
            "grid_row_tablet": 6,
            "grid_row_mobile": 12,
            "grid_column": "1",
            "image": "shopify:\/\/shop_images\/dressfast.br.jpg",
            "icon": "comfort-system",
            "headline": "<p>Hubbard Comfort System<\/p>",
            "body": "We took premium materials and added the Hubbard Comfort System: arch support, memory foam insoles, and a cushy cupsole to put a spring in your step.",
            "url": ""
          }
        },
        "1a1f9d28-0fea-4853-ba29-c7afeea7ecfb": {
          "type": "two-column",
          "settings": {
            "title": "Wide Width 3",
            "collection": "mens-wide-width-shoes",
            "grid_row_desktop": 6,
            "grid_row_tablet": 6,
            "grid_row_mobile": 12,
            "grid_column": "1",
            "image": "shopify:\/\/shop_images\/slippers.vertical.jpg",
            "icon": "comfort-system",
            "headline": "<p>Hubbard Comfort System<\/p>",
            "body": "We took premium materials and added the Hubbard Comfort System: arch support, memory foam insoles, and a cushy cupsole to put a spring in your step.",
            "url": ""
          }
        },
        "a08fe5aa-89c9-481a-a69d-255be8095241": {
          "type": "two-column",
          "settings": {
            "title": "Slippers",
            "collection": "mens-slippers",
            "grid_row_desktop": 2,
            "grid_row_tablet": 2,
            "grid_row_mobile": 4,
            "grid_column": "1",
            "image": "shopify:\/\/shop_images\/slippers.vertical.jpg",
            "icon": "comfort-system",
            "headline": "<p>Hubbard Comfort System<\/p>",
            "body": "We took premium materials and added the Hubbard Comfort System: arch support, memory foam insoles, and a cushy cupsole to put a spring in your step.",
            "url": ""
          }
        },
        "66f1d4b4-f0b5-4725-8db0-2a2c6a3811b3": {
          "type": "two-column",
          "settings": {
            "title": "Trending Styles 1",
            "collection": "trending-styles",
            "grid_row_desktop": 4,
            "grid_row_tablet": 4,
            "grid_row_mobile": 8,
            "grid_column": "2",
            "image": "shopify:\/\/shop_images\/ad_block_half_fit_367cebdf-7745-4f33-b1b3-eb9a36a628ce.jpg",
            "image_mobile": "shopify:\/\/shop_images\/flightduo.jpg",
            "icon": "smile",
            "headline": "<p>Happiness Guarantee<\/p>",
            "body": "Our priority is your happiness. So feel free to give your new Hubbards a 30-day walk test. If your feet don't feel more comfortable and healthy, we’ll refund your purchase price. It’s that simple.",
            "url": ""
          }
        },
        "b5a9a3bd-5bbd-4368-91ec-6a7b078e25e4": {
          "type": "overlay",
          "settings": {
            "title": "Active Outdoor 1",
            "collection": "mens-active-outdoor",
            "grid_row_desktop": 2,
            "grid_row_tablet": 2,
            "grid_row_mobile": 4,
            "grid_column": "1",
            "image": "shopify:\/\/shop_images\/tam.outdoor.jpg",
            "image_mobile": "shopify:\/\/shop_images\/170526_SHubbard_DeanKarnazes_Outside_658.jpg",
            "overlay_opacity": 0,
            "headline": "",
            "url": ""
          }
        }
      },
      "block_order": [
        "60cf6921-f00e-4821-895f-e4e87de85729",
        "b895bbc3-5638-45ae-98b0-17e6dd5c8a74",
        "e32d9c64-f7da-4a24-b6a9-eea9b142dafc",
        "c1d84c46-658b-46f1-9b4d-eb99a54b759c",
        "c521511a-8873-4676-96cb-52bbd935bdab",
        "21885206-faea-4a9d-a589-595eab0d0067",
        "0fd6123b-9673-463c-9bf4-ed74e0ba4703",
        "2ee56225-458d-4382-aff4-49f0cd21b3f9",
        "2efef20f-24a7-4e39-b39d-3efca55c5db9",
        "bfa0ecf5-6cda-48ed-9298-b68db610b1ae",
        "1a1f9d28-0fea-4853-ba29-c7afeea7ecfb",
        "a08fe5aa-89c9-481a-a69d-255be8095241",
        "66f1d4b4-f0b5-4725-8db0-2a2c6a3811b3",
        "b5a9a3bd-5bbd-4368-91ec-6a7b078e25e4"
      ],
      "settings": {}
    },
    "interstitialBlocks4": {
      "type": "plp-interstitial-blocks",
      "blocks": {
        "a4a904c0-12b4-4aa9-aa7d-e0ee1c6331bd": {
          "type": "title",
          "settings": {
            "title": "MEN'S DRESS"
          }
        },
        "f9d5a853-5bbb-4e6c-b5e1-c9697205853d": {
          "type": "overlay",
          "settings": {
            "title": "Dress Sneakers 1",
            "collection": "mens-dress-sneakers",
            "grid_row_desktop": 2,
            "grid_row_tablet": 2,
            "grid_row_mobile": 4,
            "grid_column": "1",
            "image": "shopify:\/\/shop_images\/dressfast.horizontal.jpg",
            "image_mobile": "shopify:\/\/shop_images\/dressfast.br.jpg",
            "overlay_opacity": 0,
            "headline": "",
            "url": ""
          }
        },
        "8ca024e5-4290-4ac8-a9aa-74276540bd17": {
          "type": "overlay",
          "settings": {
            "title": "Dress Lace Up 1",
            "collection": "mens-lace-up",
            "grid_row_desktop": 2,
            "grid_row_tablet": 2,
            "grid_row_mobile": 2,
            "grid_column": "1",
            "image": "shopify:\/\/shop_images\/marketcap3.jpg",
            "image_mobile": "shopify:\/\/shop_images\/dressfast.br.jpg",
            "overlay_opacity": 0,
            "headline": "",
            "url": ""
          }
        },
        "3a148555-ae9a-4565-803f-82c0b8c56028": {
          "type": "overlay",
          "settings": {
            "title": "Wide Width 1",
            "collection": "mens-wide-width-shoes",
            "grid_row_desktop": 2,
            "grid_row_tablet": 2,
            "grid_row_mobile": 4,
            "grid_column": "1",
            "image": "shopify:\/\/shop_images\/frequent.wide.jpg",
            "image_mobile": "shopify:\/\/shop_images\/frequent.vertical.jpg",
            "overlay_opacity": 0,
            "headline": "",
            "url": ""
          }
        },
        "677241c4-4707-4029-8046-fe2730ce74cb": {
          "type": "overlay",
          "settings": {
            "title": "Wide Width 2",
            "collection": "mens-wide-width-shoes",
            "grid_row_desktop": 4,
            "grid_row_tablet": 4,
            "grid_row_mobile": 8,
            "grid_column": "2",
            "image": "shopify:\/\/shop_images\/dressfast.horizontal.jpg",
            "image_mobile": "shopify:\/\/shop_images\/dressfast.br.jpg",
            "overlay_opacity": 0,
            "headline": "",
            "url": ""
          }
        },
        "54fa49f7-fb68-42fb-88a9-496960b7f5aa": {
          "type": "overlay",
          "settings": {
            "title": "Loafers 1",
            "collection": "mens-loafers",
            "grid_row_desktop": 2,
            "grid_row_tablet": 2,
            "grid_row_mobile": 4,
            "grid_column": "1",
            "image": "shopify:\/\/shop_images\/adblock_loafers_4.jpg",
            "image_mobile": "shopify:\/\/shop_images\/frequent.vertical.jpg",
            "overlay_opacity": 0,
            "headline": "",
            "url": ""
          }
        },
        "64f45332-5a3b-47f8-a515-0f202062eda0": {
          "type": "overlay",
          "settings": {
            "title": "Boots 1",
            "collection": "mens-boots",
            "grid_row_desktop": 2,
            "grid_row_tablet": 2,
            "grid_row_mobile": 4,
            "grid_column": "1",
            "image": "shopify:\/\/shop_images\/maverick.hor.jpg",
            "image_mobile": "shopify:\/\/shop_images\/maverick.ver.jpg",
            "overlay_opacity": 0,
            "headline": "",
            "url": ""
          }
        },
        "e8dd457b-9dc0-41d6-a867-dd95dfc9c673": {
          "type": "overlay",
          "settings": {
            "title": "Belts 1",
            "collection": "mens-belts",
            "grid_row_desktop": 2,
            "grid_row_tablet": 2,
            "grid_row_mobile": 4,
            "grid_column": "1",
            "image": "shopify:\/\/shop_images\/belt_clp.jpg",
            "image_mobile": "shopify:\/\/shop_images\/belt_clp_mobile.jpg",
            "overlay_opacity": 0,
            "headline": "",
            "url": ""
          }
        },
        "f7791b99-4738-4492-9f26-c7f6a2248c86": {
          "type": "two-column",
          "settings": {
            "title": "Best Sellers 1",
            "collection": "mens-best-sellers",
            "grid_row_desktop": 2,
            "grid_row_tablet": 2,
            "grid_row_mobile": 4,
            "grid_column": "1",
            "image": "shopify:\/\/shop_images\/frequent.vertical.jpg",
            "icon": "smile",
            "headline": "<p>Happiness Guarantee<\/p>",
            "body": "Our priority is your happiness. So feel free to give your new Hubbards a 30-day walk test. If your feet don't feel more comfortable and healthy, we’ll refund your purchase price. It’s that simple.",
            "url": ""
          }
        }
      },
      "block_order": [
        "a4a904c0-12b4-4aa9-aa7d-e0ee1c6331bd",
        "f9d5a853-5bbb-4e6c-b5e1-c9697205853d",
        "8ca024e5-4290-4ac8-a9aa-74276540bd17",
        "3a148555-ae9a-4565-803f-82c0b8c56028",
        "677241c4-4707-4029-8046-fe2730ce74cb",
        "54fa49f7-fb68-42fb-88a9-496960b7f5aa",
        "64f45332-5a3b-47f8-a515-0f202062eda0",
        "e8dd457b-9dc0-41d6-a867-dd95dfc9c673",
        "f7791b99-4738-4492-9f26-c7f6a2248c86"
      ],
      "settings": {}
    },
    "interstitialBlocks5": {
      "type": "plp-interstitial-blocks",
      "blocks": {
        "f7afa8de-8813-4c0a-8a79-923bb49a8151": {
          "type": "title",
          "settings": {
            "title": "WOMEN'S SHOES"
          }
        },
        "b60cacf3-29e3-42d1-bf5a-bd9b0d5acb2d": {
          "type": "two-column",
          "settings": {
            "title": "All Women's 1",
            "collection": "women",
            "grid_row_desktop": 2,
            "grid_row_tablet": 2,
            "grid_row_mobile": 4,
            "grid_column": "1",
            "image": "shopify:\/\/shop_images\/Plantar.Free.jpg",
            "image_mobile": "shopify:\/\/shop_images\/ad_block_half_fit_367cebdf-7745-4f33-b1b3-eb9a36a628ce.jpg",
            "icon": "smile",
            "headline": "<p>Happiness Guarantee<\/p>",
            "body": "So feel free to give your new Hubbards a 30-day walk test. If your feet don't feel more comfortable and healthy, we’ll refund your purchase price. It’s that simple.",
            "url": ""
          }
        },
        "a99eadc5-301b-4c06-8780-0db518df84d6": {
          "type": "two-column",
          "settings": {
            "title": "All Women's 3",
            "collection": "women",
            "grid_row_desktop": 6,
            "grid_row_tablet": 6,
            "grid_row_mobile": 12,
            "grid_column": "1",
            "image": "shopify:\/\/shop_images\/wsport.dog.jpg",
            "image_mobile": "shopify:\/\/shop_images\/wsport.dog.jpg",
            "icon": "comfort-system",
            "headline": "<p>Hubbard Comfort System<\/p>",
            "body": "We took premium materials and added the Hubbard Comfort System: arch support, memory foam insoles, and a cushy cupsole to put a spring in your step.",
            "url": ""
          }
        },
        "552df131-4443-4268-bec4-e099750dbc48": {
          "type": "overlay",
          "settings": {
            "title": "All Women's 2",
            "collection": "women",
            "grid_row_desktop": 4,
            "grid_row_tablet": 4,
            "grid_row_mobile": 8,
            "grid_column": "2",
            "image": "shopify:\/\/shop_images\/dreams.horizontal.jpg",
            "image_mobile": "shopify:\/\/shop_images\/dreamslaceupvertical2.jpg",
            "overlay_opacity": 0,
            "headline": "",
            "url": ""
          }
        },
        "49b47e98-226c-4f82-a243-36dbcd4b45fc": {
          "type": "overlay",
          "settings": {
            "title": "Dreams Slippers 1",
            "collection": "womens-hubbard-dreams-slippers",
            "grid_row_desktop": 2,
            "grid_row_tablet": 2,
            "grid_row_mobile": 4,
            "grid_column": "1",
            "image": "shopify:\/\/shop_images\/clouds1.jpg",
            "image_mobile": "shopify:\/\/shop_images\/clouds2.jpg",
            "overlay_opacity": 0,
            "headline": "",
            "url": ""
          }
        },
        "c52cb808-7929-437e-9f5c-ee4b60b64199": {
          "type": "overlay",
          "settings": {
            "title": "Boots Women",
            "collection": "womens-boots",
            "grid_row_desktop": 2,
            "grid_row_tablet": 2,
            "grid_row_mobile": 4,
            "grid_column": "1",
            "image": "shopify:\/\/shop_images\/ladymav.jpg",
            "image_mobile": "shopify:\/\/shop_images\/ladymav2.jpg",
            "overlay_opacity": 0,
            "headline": "",
            "url": ""
          }
        },
        "9a142a89-6e80-472b-bbfc-13dbf40f1a7a": {
          "type": "overlay",
          "disabled": true,
          "settings": {
            "title": "bag1",
            "collection": "handwoven-artisanal-bags",
            "grid_row_desktop": 2,
            "grid_row_tablet": 2,
            "grid_row_mobile": 2,
            "grid_column": "1",
            "image": "shopify:\/\/shop_images\/PLPbags-1.jpg",
            "image_mobile": "shopify:\/\/shop_images\/bag-3_c25837ee-4816-452d-a774-9552f5cf3cc4.jpg",
            "overlay_opacity": 0,
            "headline": "",
            "url": ""
          }
        },
        "12dc8b5f-3499-4f01-a371-014df1f5e98b": {
          "type": "two-column",
          "settings": {
            "title": "bags2",
            "collection": "handwoven-artisanal-bags",
            "grid_row_desktop": 2,
            "grid_row_tablet": 2,
            "grid_row_mobile": 4,
            "grid_column": "1",
            "image": "shopify:\/\/shop_images\/PLPbags-2.jpg",
            "icon": "woven",
            "headline": "<p><strong>Handwoven Tradition<\/strong><\/p>",
            "body": "The bags are woven intricately by hand, with naturally-dyed material. The love and care that goes into the weaving is immense — artisans work full days while weaving their bags and can take up to a whole month to complete one single bag.",
            "url": ""
          }
        },
        "c3436eae-850d-4a28-bd2d-c3bea413e365": {
          "type": "overlay",
          "disabled": true,
          "settings": {
            "title": "bags3",
            "collection": "handwoven-artisanal-bags",
            "grid_row_desktop": 6,
            "grid_row_tablet": 6,
            "grid_row_mobile": 12,
            "grid_column": "1",
            "image": "shopify:\/\/shop_images\/bag-1.jpg",
            "image_mobile": "shopify:\/\/shop_images\/bag-1_df70a902-9a3d-4208-98fb-4e14f41a9128.jpg",
            "overlay_opacity": 0,
            "headline": "",
            "url": ""
          }
        },
        "9e8877b1-9e52-4de1-b3ca-947df80a84b1": {
          "type": "overlay",
          "settings": {
            "title": "Trending styles 2",
            "collection": "trending-styles",
            "grid_row_desktop": 2,
            "grid_row_tablet": 2,
            "grid_row_mobile": 4,
            "grid_column": "1",
            "image": "shopify:\/\/shop_images\/dualspirit.jpg",
            "image_mobile": "shopify:\/\/shop_images\/FreeSpirit.mobile.jpg",
            "overlay_opacity": 0,
            "headline": "",
            "url": ""
          }
        }
      },
      "block_order": [
        "f7afa8de-8813-4c0a-8a79-923bb49a8151",
        "b60cacf3-29e3-42d1-bf5a-bd9b0d5acb2d",
        "a99eadc5-301b-4c06-8780-0db518df84d6",
        "552df131-4443-4268-bec4-e099750dbc48",
        "49b47e98-226c-4f82-a243-36dbcd4b45fc",
        "c52cb808-7929-437e-9f5c-ee4b60b64199",
        "9a142a89-6e80-472b-bbfc-13dbf40f1a7a",
        "12dc8b5f-3499-4f01-a371-014df1f5e98b",
        "c3436eae-850d-4a28-bd2d-c3bea413e365",
        "9e8877b1-9e52-4de1-b3ca-947df80a84b1"
      ],
      "settings": {}
    },
    "1634948876c19a33d3": {
      "type": "clp-three-columns",
      "disabled": true,
      "blocks": {
        "987f3670-6e6b-4876-872b-83ee29eb1a3f": {
          "type": "column",
          "settings": {
            "icon": "arch-support",
            "headline": "Plantar Fasciitis 1",
            "body": "<p>Plantar Fasciitis Plantar Fasciitis Plantar Fasciitis Plantar Fasciitis Plantar Fasciitis<\/p>"
          }
        },
        "da48b2db-194e-49d6-a661-aae0fd12bd14": {
          "type": "column",
          "settings": {
            "icon": "healthy-feet",
            "headline": "Plantar Fasciitis 2",
            "body": "<p>Plantar Fasciitis Plantar Fasciitis Plantar Fasciitis Plantar Fasciitis Plantar Fasciitis<\/p>"
          }
        },
        "cd2a80ab-5614-4657-9cbd-a9597e827516": {
          "type": "column",
          "settings": {
            "icon": "heart",
            "headline": "Plantar Fasciitis 3",
            "body": "<p>Plantar Fasciitis Plantar Fasciitis Plantar Fasciitis Plantar Fasciitis Plantar Fasciitis<\/p>"
          }
        }
      },
      "block_order": [
        "987f3670-6e6b-4876-872b-83ee29eb1a3f",
        "da48b2db-194e-49d6-a661-aae0fd12bd14",
        "cd2a80ab-5614-4657-9cbd-a9597e827516"
      ],
      "settings": {}
    },
    "product-grid": {
      "type": "custom-collection-product-grid",
      "settings": {}
    },
    "16315735911a88ab25": {
      "type": "three-column",
      "blocks": {
        "e879d81b-7cf2-4b97-a593-3736e73a728b": {
          "type": "column",
          "settings": {
            "icon": "smile",
            "headline": "30 Days Happiness Guarantee",
            "body": "<p>Our removable memory foam insoles are coveted by discerning feet around the world.<\/p>"
          }
        },
        "3b4d06c3-75f5-4421-9a99-05dd5f90d0f5": {
          "type": "column",
          "settings": {
            "icon": "shoe",
            "headline": "Trade-Up Program",
            "body": "<p>$50 off a new pair of Hubbards when you donate your old shoes – any brand – to someone in need.<\/p>"
          }
        },
        "d377faa6-cabd-4b8f-973c-ab62eb36ba1f": {
          "type": "column",
          "settings": {
            "icon": "chat",
            "headline": "Customer Support",
            "body": "<p>Monday-Friday 7am-5pm PST<\/p><p>(844) 482-4800 or Chat<\/p>"
          }
        }
      },
      "block_order": [
        "e879d81b-7cf2-4b97-a593-3736e73a728b",
        "3b4d06c3-75f5-4421-9a99-05dd5f90d0f5",
        "d377faa6-cabd-4b8f-973c-ab62eb36ba1f"
      ],
      "settings": {}
    }
  },
  "order": [
    "banner",
    "interstitialBlocks1",
    "interstitialBlocks2",
    "interstitialBlocks3",
    "interstitialBlocks4",
    "interstitialBlocks5",
    "1634948876c19a33d3",
    "product-grid",
    "16315735911a88ab25"
  ]
}