{
  "sections": {
    "16279333605ae26075": {
      "type": "full-banner",
      "settings": {
        "overlay_opacity": 25,
        "banner_background_image": "shopify:\/\/shop_images\/hero_ace93846-5648-4301-90f1-0fca892eb231.jpg",
        "video": "https:\/\/vimeo.com\/630792133",
        "video_mobile": "https:\/\/vimeo.com\/637190020",
        "page_hero": true,
        "unspace_above": false,
        "unspace_section": false,
        "banner_height": "screen-height",
        "content_alignment": "center",
        "banner_eyebrow": "",
        "banner_headline": "<p>your feet just <br\/>found a new best friend<\/p>",
        "banner_headline_animation": false,
        "banner_headline_size": "heading_xl",
        "banner_subhead": "<p>Shoes engineered to alleviate foot pain and contribute to a healthy lifestyle.<\/p>",
        "banner_subhead_size": "h3",
        "banner_body": "",
        "banner_body_size": "body-tall",
        "content_color": "#ffffff",
        "banner_button_label": "Shop Hubbard Flight",
        "banner_button_url": "shopify:\/\/collections\/mens-hubbard-flight-sneakers",
        "banner_button_style": "button--primary",
        "banner_button_margin": "60px"
      }
    },
    "1631826443e2dbf05e": {
      "type": "collection-slider",
      "settings": {
        "collection": "trending-styles",
        "title": "Trending Styles",
        "description": ""
      }
    },
    "16283598041c1feb89": {
      "type": "video-hover-cards",
      "blocks": {
        "ba21dfce-ffc1-4104-9720-7306ce2f8d55": {
          "type": "card",
          "settings": {
            "overlay": 25,
            "background_image": "shopify:\/\/shop_images\/casual.jpg",
            "background_image_mobile": "shopify:\/\/shop_images\/casual_mobile.jpg",
            "video_background": "",
            "headline": "Casual",
            "url": "shopify:\/\/collections\/mens-sneakers",
            "url_label": "Shop Sneakers"
          }
        },
        "963df496-6b2d-40fc-82c4-cf8a7f2083d0": {
          "type": "card",
          "settings": {
            "overlay": 25,
            "background_image": "shopify:\/\/shop_images\/dressy.jpg",
            "background_image_mobile": "shopify:\/\/shop_images\/dressy_mobile.jpg",
            "video_background": "",
            "headline": "Formal",
            "url": "shopify:\/\/collections\/mens-dress-shoes",
            "url_label": "Shop Now"
          }
        },
        "6ae7c807-37f2-4a0e-817d-b7276987068e": {
          "type": "card",
          "settings": {
            "overlay": 20,
            "background_image": "shopify:\/\/shop_images\/traveling_99e0bfff-d061-4798-b99c-d09d4557d995.jpg",
            "background_image_mobile": "shopify:\/\/shop_images\/traveling_mobile_a7819a69-1846-40c1-a0bb-7dc5e47d8a9e.jpg",
            "video_background": "",
            "headline": "Travel",
            "url": "shopify:\/\/collections\/mens-slip-on-shoes",
            "url_label": "Shop Now"
          }
        },
        "8de1de06-2680-44cd-bc34-eb06ca20e77d": {
          "type": "card",
          "settings": {
            "overlay": 20,
            "background_image": "shopify:\/\/shop_images\/sailing.jpg",
            "background_image_mobile": "shopify:\/\/shop_images\/sailing_mobile.jpg",
            "video_background": "",
            "headline": "Sailing",
            "url": "shopify:\/\/collections\/mens-boat-shoes",
            "url_label": "Shop Now"
          }
        },
        "46699573-2057-4a5f-b2e7-ac980883e531": {
          "type": "card",
          "settings": {
            "overlay": 20,
            "background_image": "shopify:\/\/shop_images\/walking.jpg",
            "background_image_mobile": "shopify:\/\/shop_images\/walking_mobile.jpg",
            "video_background": "",
            "headline": "Walking",
            "url": "shopify:\/\/collections\/mens-walking-shoes",
            "url_label": "Shop Now"
          }
        },
        "1bf4a415-fc01-440e-8c7c-59c7efec3fd1": {
          "type": "card",
          "settings": {
            "overlay": 20,
            "background_image": "shopify:\/\/shop_images\/foot_health.jpg",
            "background_image_mobile": "shopify:\/\/shop_images\/foot_health_mobile.jpg",
            "video_background": "",
            "headline": "Foot Health",
            "url": "shopify:\/\/collections\/mens-podiatrist-recommended",
            "url_label": "Shop Now"
          }
        }
      },
      "block_order": [
        "ba21dfce-ffc1-4104-9720-7306ce2f8d55",
        "963df496-6b2d-40fc-82c4-cf8a7f2083d0",
        "6ae7c807-37f2-4a0e-817d-b7276987068e",
        "8de1de06-2680-44cd-bc34-eb06ca20e77d",
        "46699573-2057-4a5f-b2e7-ac980883e531",
        "1bf4a415-fc01-440e-8c7c-59c7efec3fd1"
      ],
      "settings": {
        "main_headline": "For all walks of life",
        "main_url": "\/",
        "main_url_label": "Shop All"
      }
    },
    "16280286957ac2d9b5": {
      "type": "dual-calls-to-action",
      "settings": {
        "dual_left_image": "shopify:\/\/shop_images\/men.png",
        "dual_right_image": "shopify:\/\/shop_images\/women.png",
        "dual_mobile_image": "shopify:\/\/shop_images\/dual_CTA_mobile_09955f31-0ade-4f8d-af55-5df0fc416881.jpg",
        "dual_headline": "<p>Shoes that are<\/p><p>built for comfort<\/p>",
        "dual_left_button_label": "Shop Men",
        "dual_left_button_url": "shopify:\/\/collections\/mens-shoes-all",
        "dual_right_button_label": "Shop Women",
        "dual_right_button_url": "shopify:\/\/collections\/women"
      }
    },
    "1627939454e4cd04d6": {
      "type": "full-banner",
      "settings": {
        "overlay_opacity": 15,
        "banner_background_image": "shopify:\/\/shop_images\/listen_0ac17168-9279-4320-903b-83ffc0230295.jpg",
        "banner_background_image_mobile": "shopify:\/\/shop_images\/listen_mobile_0c0c8e37-3c93-4cff-b688-e2315ca920bd.jpg",
        "video": "",
        "video_mobile": "",
        "page_hero": false,
        "unspace_above": false,
        "unspace_section": false,
        "banner_height": "ratio-square_to_rectangle",
        "content_alignment": "center",
        "banner_eyebrow": "",
        "banner_headline": "<p>Listen to your feet<\/p>",
        "banner_headline_animation": false,
        "banner_headline_size": "h1",
        "banner_subhead": "",
        "banner_subhead_size": "h3",
        "banner_body": "",
        "banner_body_size": "body-tall",
        "content_color": "#ffffff",
        "banner_button_label": "Our Mission",
        "banner_button_url": "shopify:\/\/pages\/about-us",
        "banner_button_style": "button--primary",
        "banner_button_margin": "30px"
      }
    },
    "1633992202dd3ee96f": {
      "type": "testimonial-slider",
      "blocks": {
        "c0c2d3e6-1a59-4ded-b0aa-df12ee46f334": {
          "type": "block",
          "settings": {
            "portrait": "shopify:\/\/shop_images\/1.png",
            "rating": 5,
            "quote": "These are now my day to day go-to shoes because I love the comfort, style and long lasting quality.",
            "byline": "Gary, California",
            "product": "hubbard-fast-taupe-nubuck"
          }
        },
        "a9f763f0-f33f-4298-9312-3e67b9612e8f": {
          "type": "block",
          "settings": {
            "portrait": "shopify:\/\/shop_images\/4.png",
            "rating": 5,
            "quote": "Finally, a comfortable dress shoe! I love that these are crafted both inside and out with care and precision.",
            "byline": "Brandon, Virginia",
            "product": "dressfast-black-on-dark-gray-sole"
          }
        },
        "74f971af-ff24-4fa4-a09b-d680e27aea2e": {
          "type": "block",
          "settings": {
            "portrait": "shopify:\/\/shop_images\/3.png",
            "rating": 5,
            "quote": "I have been suffering from plantar fasciitis for a few months and these shoes offer relief! Cute, too.",
            "byline": "Jenny, South Dakota",
            "product": "hubbard-dreams-clog-oatmeal-heather"
          }
        },
        "c46f737e-6bf0-45cc-b505-e89df3ce8bcc": {
          "type": "block",
          "settings": {
            "portrait": "shopify:\/\/shop_images\/5.png",
            "rating": 5,
            "quote": "Since my owner upgraded to Hubbard shoes, I go on more walks. Four paws up!",
            "byline": "Sparky, Texas",
            "product": "flight-navy-leather"
          }
        },
        "6e360568-c14c-4aff-a06b-daf21f13fcfc": {
          "type": "block",
          "settings": {
            "portrait": "shopify:\/\/shop_images\/2.png",
            "rating": 5,
            "quote": "As a mom, I'm always on my feet and these shoes make a huge difference! The insoles are like walking on clouds.",
            "byline": "Katia, Utah",
            "product": "womens-hubbard-flight-sport-navy-nubuck"
          }
        }
      },
      "block_order": [
        "c0c2d3e6-1a59-4ded-b0aa-df12ee46f334",
        "a9f763f0-f33f-4298-9312-3e67b9612e8f",
        "74f971af-ff24-4fa4-a09b-d680e27aea2e",
        "c46f737e-6bf0-45cc-b505-e89df3ce8bcc",
        "6e360568-c14c-4aff-a06b-daf21f13fcfc"
      ],
      "settings": {
        "heading": "What our customers are saying",
        "cta_label": "",
        "cta_url": ""
      }
    },
    "1628711992eb75f573": {
      "type": "promo-rows",
      "blocks": {
        "3d82b9ba-3b09-460c-b8ac-5904d0b68e27": {
          "type": "row",
          "settings": {
            "background_image-full": "shopify:\/\/shop_images\/flight_eco_73c95e8c-20c3-4980-b8cb-bf3a5c217aab.png",
            "background_color": "#f0f3f4",
            "eyebrow": "Eco Collection",
            "headline": "<p>Now in Recycled<\/p><p>Materials<\/p>",
            "underline_color": "#f1f3f4",
            "body": "We're putting our best foot forward with a planet-first approach.",
            "url": "shopify:\/\/products\/flight-cappucino",
            "url_label": "Shop Now"
          }
        },
        "420c9223-d0c1-4696-9c26-b9f5acb408e6": {
          "type": "row",
          "settings": {
            "background_image-full": "shopify:\/\/shop_images\/handcrafted_in_portugal.jpg",
            "background_image-content": "shopify:\/\/shop_images\/Vector.png",
            "background_color": "#fdfcf7",
            "eyebrow": "Superior Quality",
            "headline": "<p>Handcrafted<\/p><p>In Portugal<\/p>",
            "underline_color": "rgba(0,0,0,0)",
            "body": "Every detail is handcrafted by our artisan partners.",
            "url": "shopify:\/\/pages\/product-story",
            "url_label": "Read More"
          }
        },
        "35961283-5796-42b8-b4b5-5ef5a7c670ef": {
          "type": "row",
          "settings": {
            "background_image-full": "shopify:\/\/shop_images\/1440x1440.png",
            "background_image-content": "shopify:\/\/shop_images\/insole_92193493-62e5-4534-9e39-aead2d172dd8.jpg",
            "background_color": "",
            "eyebrow": "Proprietary Technology",
            "headline": "<p>Hubbard Comfort System<\/p>",
            "underline_color": "#ffffff",
            "body": "Our removable memory foam insoles are coveted by discerning feet around the world.",
            "url": "",
            "url_label": ""
          }
        }
      },
      "block_order": [
        "3d82b9ba-3b09-460c-b8ac-5904d0b68e27",
        "420c9223-d0c1-4696-9c26-b9f5acb408e6",
        "35961283-5796-42b8-b4b5-5ef5a7c670ef"
      ],
      "settings": {}
    },
    "1628011008db76fee3": {
      "type": "full-banner",
      "settings": {
        "overlay_opacity": 35,
        "banner_background_image": "shopify:\/\/shop_images\/flight_womens_keyframe.png",
        "banner_background_image_mobile": "shopify:\/\/shop_images\/flight_womens_keyframe-mobile.png",
        "video": "https:\/\/vimeo.com\/624671763",
        "video_mobile": "",
        "page_hero": false,
        "unspace_above": true,
        "unspace_section": false,
        "banner_height": "ratio-square_to_rectangle",
        "content_alignment": "center",
        "banner_eyebrow": "New for Women",
        "banner_headline": "<p>Hubbard Flight sport<\/p>",
        "banner_headline_animation": false,
        "banner_headline_size": "heading_xl",
        "banner_subhead": "",
        "banner_subhead_size": "h3",
        "banner_body": "",
        "banner_body_size": "body-tall",
        "content_color": "#ffffff",
        "banner_button_label": "Shop Now",
        "banner_button_url": "shopify:\/\/products\/womens-hubbard-flight-sport-navy-nubuck",
        "banner_button_style": "button--primary",
        "banner_button_margin": "30px"
      }
    },
    "163399351066b61dcb": {
      "type": "blog-articles-slider",
      "blocks": {
        "63ee6e63-5f37-4284-b070-5d622604adf0": {
          "type": "block",
          "settings": {
            "article": "journal\/comfortable-sustainable-shoes"
          }
        },
        "a7f0df5e-83cf-4800-b225-30da4738df9e": {
          "type": "block",
          "settings": {
            "article": "journal\/customer-journey-golf-shoes-bill-davis"
          }
        },
        "96e98bd9-af84-4d0a-a819-a94a23666f9b": {
          "type": "block",
          "settings": {
            "article": "journal\/work-from-home-shoes"
          }
        },
        "7df4a027-0503-400e-a559-7a5a98bae4d9": {
          "type": "block",
          "settings": {
            "article": "journal\/10-winter-travel-tips"
          }
        },
        "977f2404-69c6-47d3-ac8b-6de0df1f9a73": {
          "type": "block",
          "settings": {
            "article": "journal\/5-quality-reasons"
          }
        },
        "ce1f8e96-858b-4f45-a9a8-5cdfcc7cd39f": {
          "type": "block",
          "disabled": true,
          "settings": {
            "article": ""
          }
        }
      },
      "block_order": [
        "63ee6e63-5f37-4284-b070-5d622604adf0",
        "a7f0df5e-83cf-4800-b225-30da4738df9e",
        "96e98bd9-af84-4d0a-a819-a94a23666f9b",
        "7df4a027-0503-400e-a559-7a5a98bae4d9",
        "977f2404-69c6-47d3-ac8b-6de0df1f9a73",
        "ce1f8e96-858b-4f45-a9a8-5cdfcc7cd39f"
      ],
      "settings": {
        "subheading": "Journal",
        "heading": "Where Will Your Hubbards Take You?",
        "cta_label": "Read The Journal",
        "cta_url": "shopify:\/\/blogs\/journal"
      }
    },
    "1628115644fa86806a": {
      "type": "customer-service",
      "blocks": {
        "066a6f30-8afa-4ef7-947e-2fc9b86da980": {
          "type": "card",
          "settings": {
            "icon": "smile",
            "headline": "30 Day Guarantee",
            "body": "<p>Our priority is your happiness. So feel free to give your new Hubbards a 30 day walk test. If you’re not delighted by their comfort, we’ll refund your purchase.<\/p>",
            "url": "shopify:\/\/pages\/returns-exchanges",
            "url_label": "Learn More"
          }
        },
        "f43200ab-13d8-4370-b70e-7f965b1f2ef8": {
          "type": "card",
          "settings": {
            "icon": "tradeup",
            "headline": "Trade-Up Program",
            "body": "<p>$50 off a new pair of Hubbards when you donate your old shoes – any brand – to someone in need.<\/p>",
            "url": "shopify:\/\/pages\/trade-up",
            "url_label": "Trade-Up"
          }
        },
        "35fbcf3e-bf58-4feb-9585-78df94267e98": {
          "type": "card",
          "settings": {
            "icon": "chat",
            "headline": "Customer Service",
            "body": "<p>Monday - Friday from 7am - 5pm PT<br\/>(844) 482-4800<\/p>",
            "url": "shopify:\/\/pages\/contact",
            "url_label": "Contact Us"
          }
        }
      },
      "block_order": [
        "066a6f30-8afa-4ef7-947e-2fc9b86da980",
        "f43200ab-13d8-4370-b70e-7f965b1f2ef8",
        "35fbcf3e-bf58-4feb-9585-78df94267e98"
      ],
      "settings": {
        "headline": "We Love Our Customers",
        "subhead": "Call us at",
        "body": "We have an old-fashioned approach: We actually answer the phone. Real people—with deep expertise—ready to answer your questions. Our U.S. based award-winning customer service department is here to help."
      }
    },
    "163398657127af428d": {
      "type": "instagram-prompt",
      "blocks": {
        "796e6f15-f944-4778-9a46-cec6939bfa22": {
          "type": "image",
          "settings": {
            "image": "shopify:\/\/shop_images\/image-1_f5352eef-4a87-4470-8e7b-c5ad83d87521.jpg"
          }
        },
        "33299e42-a37c-4967-8587-d0e0f7b60ed2": {
          "type": "image",
          "settings": {
            "image": "shopify:\/\/shop_images\/image-2_1ffbb6d2-6584-495a-b890-0baf7856f3bb.jpg"
          }
        },
        "15943e73-3e25-4acb-8a23-861623dca72b": {
          "type": "image",
          "settings": {
            "image": "shopify:\/\/shop_images\/image-3.jpg"
          }
        },
        "64d62409-a93c-494c-93e4-a3573e2adcf1": {
          "type": "image",
          "settings": {
            "image": "shopify:\/\/shop_images\/image-4.jpg"
          }
        }
      },
      "block_order": [
        "796e6f15-f944-4778-9a46-cec6939bfa22",
        "33299e42-a37c-4967-8587-d0e0f7b60ed2",
        "15943e73-3e25-4acb-8a23-861623dca72b",
        "64d62409-a93c-494c-93e4-a3573e2adcf1"
      ],
      "settings": {
        "heading": "@samuelhubbardco",
        "paragraph": "Check out our digital scrapbook we like to call \"Lifestyles of the Stylish and Comfy.\"",
        "cta_label": "Follow us",
        "cta_url": "https:\/\/www.instagram.com\/samuelhubbardco\/"
      }
    },
    "1628108658cb32f829": {
      "type": "subscribe_with-image",
      "settings": {}
    }
  },
  "order": [
    "16279333605ae26075",
    "1631826443e2dbf05e",
    "16283598041c1feb89",
    "16280286957ac2d9b5",
    "1627939454e4cd04d6",
    "1633992202dd3ee96f",
    "1628711992eb75f573",
    "1628011008db76fee3",
    "163399351066b61dcb",
    "1628115644fa86806a",
    "163398657127af428d",
    "1628108658cb32f829"
  ]
}