{
  "sections": {
    "main": {
      "type": "main-page",
      "disabled": true,
      "settings": {}
    },
    "1633029050323e5ea2": {
      "type": "full-banner",
      "settings": {
        "overlay_opacity": 25,
        "banner_background_image": "shopify:\/\/shop_images\/trade_up_full_banner.jpg",
        "video": "",
        "video_mobile": "",
        "page_hero": false,
        "unspace_above": false,
        "unspace_section": false,
        "banner_height": "screen-height",
        "content_alignment": "center",
        "banner_eyebrow": "",
        "banner_headline": "<p>Trade up to comfort<\/p>",
        "banner_headline_size": "t-h-xl",
        "banner_subhead": "<p>Get $50 off a  pair of Hubbards when you donate your old shoes—any brand—to someone in need.<\/p>",
        "banner_subhead_size": "h3",
        "banner_body": "",
        "banner_body_size": "body-tall",
        "content_color": "#ffffff",
        "banner_button_label": "",
        "banner_button_url": "",
        "banner_button_style": "button--primary",
        "banner_button_margin": "60px"
      }
    },
    "1632265728f3c5468c": {
      "type": "vertical-sequence",
      "blocks": {
        "fb62475d-2cd5-4b34-ada8-7499b9a1622e": {
          "type": "step",
          "settings": {
            "image": "shopify:\/\/shop_images\/shoes.png",
            "title": "Donate your old shoes",
            "body": "<p>Drop your gently worn shoes off at your favorite charity or find a drop-off location below.<\/p>",
            "first_url": "https:\/\/soles4souls.org\/give-shoes\/#drop-off",
            "first_url_label": "Drop Off Locator",
            "second_url": "",
            "second_url_label": ""
          }
        },
        "117b7fbd-88a4-4c31-a869-0e2ab409cf07": {
          "type": "step",
          "settings": {
            "image": "shopify:\/\/shop_images\/keyboard.png",
            "title": "Email your donor form",
            "body": "<p>Receive a reward for your good deed! Just email your completed donor form to <a href=\"mailto:TradeUp@SamuelHubbard.com\"><span style=\"text-decoration:underline\">tradeup@samuelhubbard.com<\/span><\/a> and we’ll send you a promo code within one business day for $50 off a new pair of Hubbards. <\/p>",
            "first_url": "https:\/\/cdn.shopify.com\/s\/files\/1\/0542\/1681\/8875\/files\/Soles4Souls_Samuel_Hubbard_Donor_Form_8cd49710-a891-41b6-bd4f-ac380b9656ff.pdf?v=1639680881",
            "first_url_label": "Donation Form",
            "second_url": "",
            "second_url_label": ""
          }
        },
        "1c3b3689-dda4-4835-8a6b-931413ce1304": {
          "type": "step",
          "settings": {
            "image": "shopify:\/\/shop_images\/new_hubbards.jpg",
            "title": "Start shopping!",
            "body": "<p>Now the fun part. Order your new Hubbards.<\/p>",
            "first_url": "shopify:\/\/collections\/mens-shoes-all",
            "first_url_label": "Shop Men",
            "second_url": "shopify:\/\/collections\/women",
            "second_url_label": "Shop Women"
          }
        }
      },
      "block_order": [
        "fb62475d-2cd5-4b34-ada8-7499b9a1622e",
        "117b7fbd-88a4-4c31-a869-0e2ab409cf07",
        "1c3b3689-dda4-4835-8a6b-931413ce1304"
      ],
      "settings": {}
    },
    "16322661870af0e50e": {
      "type": "fine-print-box",
      "blocks": {
        "b424dde5-78c6-4605-8371-386e387367da": {
          "type": "list_item",
          "settings": {
            "body": "Promo codes will be given for each donation, but are limited to one per purchase."
          }
        },
        "d09af8d0-f0c7-4a3b-915e-28b0261279f1": {
          "type": "list_item",
          "settings": {
            "body": "If you can’t find a convenient Soles4Soles drop-off location, we’d still love for you to donate your old shoes! As a result, we’ll also accept an emailed donation receipt from the charity of your choice."
          }
        }
      },
      "block_order": [
        "b424dde5-78c6-4605-8371-386e387367da",
        "d09af8d0-f0c7-4a3b-915e-28b0261279f1"
      ],
      "settings": {
        "title": "a few important things..."
      }
    },
    "1633029063178069f2": {
      "type": "full-banner",
      "settings": {
        "overlay_opacity": 30,
        "banner_background_image": "shopify:\/\/shop_images\/soles4soles_ea641ea3-9331-404d-a035-5c2258cdf9ae.jpg",
        "banner_background_image_mobile": "shopify:\/\/shop_images\/soles4soles_mobile.jpg",
        "video": "",
        "video_mobile": "",
        "page_hero": false,
        "unspace_above": false,
        "unspace_section": false,
        "banner_height": "ratio-2074",
        "content_alignment": "center",
        "banner_eyebrow": "",
        "banner_headline": "<p><strong>MEET OUR CHARITY PARTNER<\/strong><\/p>",
        "banner_headline_size": "t-h-xl",
        "banner_subhead": "<p>Soles4Souls<\/p>",
        "banner_subhead_size": "h3",
        "banner_body": "<p>Our Trade-Up Program partner Soles4Souls creates sustainable jobs and provides relief through the distribution of shoes and clothing around the world. Since 2006, Soles4Souls has distributed more than 53 million pairs of shoes in 127 countries and all 50 US states. Together with supporters and partners, like Samuel Hubbard, they’ve kept more than 53 million pounds of textiles from going to landfills and generated over $250 million in economic impact. <\/p>",
        "banner_body_size": "body-tall",
        "content_color": "#ffffff",
        "banner_button_label": "Learn More",
        "banner_button_url": "https:\/\/soles4souls.org\/about-us\/",
        "banner_button_style": "button--primary",
        "banner_button_margin": "60px"
      }
    }
  },
  "order": [
    "main",
    "1633029050323e5ea2",
    "1632265728f3c5468c",
    "16322661870af0e50e",
    "1633029063178069f2"
  ]
}